{
  "width": 675,
  "height": 825,
  "fps": 30,
  "ground": {
    "width": 10,
    "depth": 10
  },
  "objects": [
    {
      "type": "canvas-extrude", 
      "name": "achterwand",
      "color": "#ffff00",
      "depth": 0.1,
      "x": -5, "y": 0, "z": -5,
      "canvas": {
        "offsetX": 512,
        "offsetY": 512,
        "scale": 32,
        "width": 1024,
        "height": 1024
      },
      "image": {
        "file": "spui-0-2048.jpg",
        "offsetX": 0,
        "offsetY": 400,
        "scale": 0.2,
        "width": 2048,
        "height": 2048
      },
      "points": [
        [0, 0],
        [10, 0],
        [10, 10],
        [0, 10]
      ]
    },

    {
      "type": "canvas-extrude", 
      "name": "obj1",
      "depth": 4,
      "x": 1, "y": 0, "z": -1,
      "canvas": {
        "offsetX": 512,
        "offsetY": 512,
        "scale": 32,
        "width": 1024,
        "height": 1024
      },
      "image": {
        "file": "spui-0-2048.jpg",
        "offsetX": 700,
        "offsetY": 400,
        "scale": 0.3,
        "width": 2048,
        "height": 2048
      },
      "points": [
        [0, 0],
        [3, 0],
        [3, 8],
        [0, 8]
      ]
    },

    {
      "type": "canvas-extrude", 
      "name": "obj2",
      "depth": 7,
      "x": -4, "y": 0, "z": 2,
      "canvas": {
        "offsetX": 512,
        "offsetY": 512,
        "scale": 32,
        "width": 1024,
        "height": 1024
      },
      "image": {
        "file": "spui-0-2048.jpg",
        "offsetX": 1024,
        "offsetY": 700,
        "scale": 0.3,
        "width": 2048,
        "height": 2048
      },
      "points": [
        [0, 0],
        [4, 0],
        [4, 3],
        [0, 3]
      ]
    }
  ]
}